rbasics
…
5.0
3.6
1.4
0.2
setosa

Some examples are the following:

Select: selects a subset of the columns

mpg %>% 
select(c(model, displ, class))

# A tibble: 234 × 3
   model      displ class  
   <chr>      <dbl> <chr>  
 1 a4           1.8 compact
 2 a4           1.8 compact
 3 a4           2   compact
 4 a4           2   compact
 5 a4           2.8 compact
 6 a4           2.8 compact
 7 a4           3.1 compact
 8 a4 quattro   1.8 compact
 9 a4 quattro   1.8 compact
10 a4 quattro   2   compact
# ℹ 224 more rows
…
4.9
3.1
1.5
0.1
setosa
15.19

filter

mpg %>% 
filter(class == "compact")

# A tibble: 47 × 11
   manufacturer model      displ  year   cyl trans drv     cty   hwy fl    class
   <chr>        <chr>      <dbl> <int> <int> <chr> <chr> <int> <int> <chr> <chr>
 1 audi         a4           1.8  1999     4 auto… f        18    29 p     comp…
 2 audi         a4           1.8  1999     4 manu… f        21    29 p     comp…
 3 audi         a4           2    2008     4 manu… f        20    31 p     comp…
 4 audi         a4           2    2008     4 auto… f        21    30 p     comp…
 5 audi         a4           2.8  1999     6 auto… f        16    26 p     comp…
 6 audi         a4           2.8  1999     6 manu… f        18    26 p     comp…
 7 audi         a4           3.1  2008     6 auto… f        18    27 p     comp…
 8 audi         a4 quattro   1.8  1999     4 manu… 4        18    26 p     comp…
 9 audi         a4 quattro   1.8  1999     4 auto… 4        16    25 p     comp…
10 audi         a4 quattro   2    2008     4 manu… 4        20    28 p     comp…
# ℹ 37 more rows
…
